Reference, Value, Footprint, Datasheet, DNP, MPN
"P1","HDR1x50","megaxone_connector:FCI_62684-502100ALF","","0","62684-502100ALF"
"P2","HDR1x50","megaxone_connector:FCI_62684-502100ALF","","0","62684-502100ALF"
"P3","HDR2x25","megaxone_connector:PinHeader_2x25_P2.54mm_Vertical","","0","PRPC025DAAN-RC"
