Ref,Val,Package,PosX,PosY,Rot,Side
"P2","HDR1x50","FCI_62684-502100ALF",-31.700000,35.500000,-90.000000,bottom
"P1","HDR1x50","FCI_62684-502100ALF",3.300000,35.500000,-90.000000,top
"P3","HDR2x25","PinHeader_2x25_P2.54mm_Vertical",15.460000,65.940000,0.000000,top
